…
    postgis-workshop  postgis-workshop-2020.zip  sample_data



```python
con.sql('SELECT * FROM ST_Read("postgis-workshop/data/nyc_neighborhoods.shp");')
```




    ┌───────────────┬──────────────────────┬───────────────────────────────────────────────────────────────────────────────┐
    │   BORONAME    │         NAME         │                                     geom                                      │
    │    varchar    │       varchar        │                                   geometry                                    │
    ├───────────────┼──────────────────────┼───────────────────────────────────────────────────────────────────────────────┤
    │ Brooklyn      │ Bensonhurst          │ POLYGON ((582771.4257198056 4495167.427365481, 584651.2943549604 4497541.64…  │
    │ Manhattan     │ East Village         │ POLYGON ((585508.7534890148 4509691.267208001, 586826.3570590394 4508984.18…  │
    │ Manhattan     │ West Village         │ POLYGON ((583263.2776595836 4509242.626023987, 583276.8199068634 4509378.82…  │
    │ The Bronx     │ Throggs Neck         │ POLYGON ((597640.0090688139 4520272.719938631, 597647.7457808304 4520617.82…  │
    │ The Bronx     │ Wakefield-Williams…  │ POLYGON ((595285.2053417757 4525938.79838847, 595348.5452399419 4526158.776…  │
    │ Queens        │ Auburndale           │ POLYGON ((600973.0089608189 4510338.8574458575, 601002.162100491 4510743.04…  │
    │ Manhattan     │ Battery Park         │ POLYGON ((583408.1010054761 4508093.1107926965, 583356.0476085746 4507665.1…  │
    │ Manhattan     │ Carnegie Hill        │ POLYGON ((588501.208387079 4515525.879866604, 588125.0295366715 4514806.769…  │
    │ Staten Island │ Mariners Harbor      │ POLYGON ((570300.1080794979 4497031.156416456, 570393.8363765916 4497227.42…  │
    │ Staten Island │ Rossville            │ POLYGON ((564664.9567825551 4489358.426550738, 564771.4570512844 4489415.86…  │
    │     ·         │     ·                │                                       ·                                       │
    │     ·         │     ·                │                                       ·                                       │
    │     ·         │     ·                │                                       ·                                       │
    │ Manhattan     │ Yorkville            │ POLYGON ((589221.3042189671 4515275.918404947, 589137.4128152014 4515181.03…  │
    │ Manhattan     │ Chinatown            │ POLYGON ((584212.0263544542 4507715.994306428, 584418.5960554194 4508039.30…  │
    │ Queens        │ Bayside              │ MULTIPOLYGON (((602775.3139520675 4516699.252888854, 602773.8062540573 4516…  │
    │ Brooklyn      │ Coney Island         │ MULTIPOLYGON (((586797.2142308942 4491782.743200868, 586797.6993674854 4491…  │
    │ Queens        │ Corona               │ POLYGON ((595483.2191909261 4513816.729664179, 595482.9622063976 4513818.69…  │
    │ Brooklyn      │ Red Hook             │ MULTIPOLYGON (((584212.898102789 4502321.474446659, 584306.8204918649 45023…  │
    │ Queens        │ Douglastown-Little…  │ POLYGON ((605082.2876993549 4513540.148431633, 605091.565767156 4513533.146…  │
    │ Queens        │ Whitestone           │ MULTIPOLYGON (((600138.4932375996 4516909.499424748, 600138.4432112409 4516…  │
    │ Queens        │ Steinway             │ MULTIPOLYGON (((593231.5525230656 4515088.539060092, 593306.6081032692 4515…  │
    │ Staten Island │ Rosebank             │ POLYGON ((579051.0303273386 4495284.647006003, 579062.1215490546 4495347.57…  │
    ├───────────────┴──────────────────────┴───────────────────────────────────────────────────────────────────────────────┤
    │ 129 rows (20 shown)                                                                                        3 columns │
…
```python
con.sql('CREATE TABLE IF NOT EXISTS nyc_neighborhoods AS SELECT * FROM ST_Read("postgis-workshop/data/nyc_neighborhoods.shp");')
```

## Simple SQL


```python
con.sql('SELECT * FROM nyc_neighborhoods;')
```




    ┌───────────────┬──────────────────────┬───────────────────────────────────────────────────────────────────────────────┐
    │   BORONAME    │         NAME         │                                     geom                                      │
    │    varchar    │       varchar        │                                   geometry                                    │
    ├───────────────┼──────────────────────┼───────────────────────────────────────────────────────────────────────────────┤
    │ Brooklyn      │ Bensonhurst          │ POLYGON ((582771.4257198056 4495167.427365481, 584651.2943549604 4497541.64…  │
    │ Manhattan     │ East Village         │ POLYGON ((585508.7534890148 4509691.267208001, 586826.3570590394 4508984.18…  │
    │ Manhattan     │ West Village         │ POLYGON ((583263.2776595836 4509242.626023987, 583276.8199068634 4509378.82…  │
    │ The Bronx     │ Throggs Neck         │ POLYGON ((597640.0090688139 4520272.719938631, 597647.7457808304 4520617.82…  │
    │ The Bronx     │ Wakefield-Williams…  │ POLYGON ((595285.2053417757 4525938.79838847, 595348.5452399419 4526158.776…  │
    │ Queens        │ Auburndale           │ POLYGON ((600973.0089608189 4510338.8574458575, 601002.162100491 4510743.04…  │
    │ Manhattan     │ Battery Park         │ POLYGON ((583408.1010054761 4508093.1107926965, 583356.0476085746 4507665.1…  │
    │ Manhattan     │ Carnegie Hill        │ POLYGON ((588501.208387079 4515525.879866604, 588125.0295366715 4514806.769…  │
    │ Staten Island │ Mariners Harbor      │ POLYGON ((570300.1080794979 4497031.156416456, 570393.8363765916 4497227.42…  │
    │ Staten Island │ Rossville            │ POLYGON ((564664.9567825551 4489358.426550738, 564771.4570512844 4489415.86…  │
    │     ·         │     ·                │                                       ·                                       │
    │     ·         │     ·                │                                       ·                                       │
    │     ·         │     ·                │                                       ·                                       │
    │ Manhattan     │ Yorkville            │ POLYGON ((589221.3042189671 4515275.918404947, 589137.4128152014 4515181.03…  │
    │ Manhattan     │ Chinatown            │ POLYGON ((584212.0263544542 4507715.994306428, 584418.5960554194 4508039.30…  │
    │ Queens        │ Bayside              │ MULTIPOLYGON (((602775.3139520675 4516699.252888854, 602773.8062540573 4516…  │
    │ Brooklyn      │ Coney Island         │ MULTIPOLYGON (((586797.2142308942 4491782.743200868, 586797.6993674854 4491…  │
    │ Queens        │ Corona               │ POLYGON ((595483.2191909261 4513816.729664179, 595482.9622063976 4513818.69…  │
    │ Brooklyn      │ Red Hook             │ MULTIPOLYGON (((584212.898102789 4502321.474446659, 584306.8204918649 45023…  │
    │ Queens        │ Douglastown-Little…  │ POLYGON ((605082.2876993549 4513540.148431633, 605091.565767156 4513533.146…  │
    │ Queens        │ Whitestone           │ MULTIPOLYGON (((600138.4932375996 4516909.499424748, 600138.4432112409 4516…  │
    │ Queens        │ Steinway             │ MULTIPOLYGON (((593231.5525230656 4515088.539060092, 593306.6081032692 4515…  │
    │ Staten Island │ Rosebank             │ POLYGON ((579051.0303273386 4495284.647006003, 579062.1215490546 4495347.57…  │
    ├───────────────┴──────────────────────┴───────────────────────────────────────────────────────────────────────────────┤
    │ 129 rows (20 shown)                                                                                        3 columns │
    └──────────────────────────────────────────────────────────────────────────────────────────────────────────────────────┘




```python
con.sql('SELECT name FROM nyc_neighborhoods;')
```




    ┌──────────────────────────┐
    │           NAME           │
    │         varchar          │
    ├──────────────────────────┤
    │ Bensonhurst              │
    │ East Village             │
    │ West Village             │
    │ Throggs Neck             │
    │ Wakefield-Williamsbridge │
    │ Auburndale               │
    │ Battery Park             │
    │ Carnegie Hill            │
    │ Mariners Harbor          │
    │ Rossville                │
    │     ·                    │
    │     ·                    │
    │     ·                    │
    │ Yorkville                │
    │ Chinatown                │
    │ Bayside                  │
    │ Coney Island             │
    │ Corona                   │
    │ Red Hook                 │
    │ Douglastown-Little Neck  │
    │ Whitestone               │
    │ Steinway                 │
    │ Rosebank                 │
    ├──────────────────────────┤
    │   129 rows (20 shown)    │
    └──────────────────────────┘




```python
con.sql("SELECT name, ST_TRANSFORM(geom,'EPSG:26918','EPSG:4326') FROM nyc_neighborhoods;")

```




    ┌──────────────────────┬───────────────────────────────────────────────────────────────────────────────────────────────┐
    │         NAME         │                         st_transform(geom, 'EPSG:26918', 'EPSG:4326')                         │
    │       varchar        │                                           geometry                                            │
    ├──────────────────────┼───────────────────────────────────────────────────────────────────────────────────────────────┤
    │ Bensonhurst          │ POLYGON ((40.603177255343375 -74.02166685535772, 40.624372593164594 -73.99913147363611, 40.…  │
    │ East Village         │ POLYGON ((40.73372002435467 -73.9873400213324, 40.727213268064766 -73.9718363715135, 40.721…  │
    │ West Village         │ POLYGON ((40.729909197333484 -74.01398852243662, 40.731134619728365 -74.01381006286464, 40.…  │
    │ Throggs Neck         │ POLYGON ((40.827674726653015 -73.84204449268826, 40.830782040132526 -73.84189867432876, 40.…  │
    │ Wakefield-Williams…  │ POLYGON ((40.878984357327354 -73.86909835892438, 40.88095825479006 -73.86831299466589, 40.8…  │
    │ Auburndale           │ POLYGON ((40.737800825193474 -73.8041311108687, 40.74143762207188 -73.8037206850871, 40.747…  │
    │ Battery Park         │ POLYGON ((40.719540473403555 -74.01242682766723, 40.71569090909435 -74.01309999999982, 40.7…  │
    │ Carnegie Hill        │ POLYGON ((40.78595665284569 -73.95108078565387, 40.77952000911529 -73.95564003237227, 40.78…  │
    │ Mariners Harbor      │ POLYGON ((40.621119995798594 -74.168849994841, 40.6228799879877 -74.1677200221836, 40.62723…  │
    │ Rossville            │ POLYGON ((40.55246363625957 -74.23625454561993, 40.55297272805687 -74.23499090889992, 40.55…  │
    │     ·                │                                               ·                                               │
    │     ·                │                                               ·                                               │
    │     ·                │                                               ·                                               │
    │ Yorkville            │ POLYGON ((40.7836273516971 -73.94258327845486, 40.78278181818539 -73.94359090909067, 40.785…  │
    │ Chinatown            │ POLYGON ((40.71606184385847 -74.00296019678281, 40.718952888926566 -74.00047128061712, 40.7…  │
    │ Bayside              │ MULTIPOLYGON (((40.79486303864095 -73.78174435448365, 40.794885806020595 -73.78176180947467…  │
    │ Coney Island         │ MULTIPOLYGON (((40.57227710800682 -73.97455615126611, 40.572278255014275 -73.9745504023258,…  │
    │ Corona               │ POLYGON ((40.76978083335069 -73.86860581336617, 40.76979852067137 -73.86860855831928, 40.76…  │
    │ Red Hook             │ MULTIPOLYGON (((40.667471393754646 -74.00367396642184, 40.66781347939834 -74.0025576869529,…  │
    │ Douglastown-Little…  │ POLYGON ((40.76611879344588 -73.75493600167012, 40.766054544524884 -73.75482727272683, 40.7…  │
    │ Whitestone           │ MULTIPOLYGON (((40.797082383634994 -73.8129599183423, 40.79708758238439 -73.81296041872561,…  │
    │ Steinway             │ MULTIPOLYGON (((40.781494374848094 -73.89509156091411, 40.782179436469995 -73.8941907136972…  │
    │ Rosebank             │ POLYGON ((40.604597206467325 -74.06562040674635, 40.6051629552721 -74.06548143037406, 40.60…  │
    ├──────────────────────┴───────────────────────────────────────────────────────────────────────────────────────────────┤
    │ 129 rows (20 shown)                                                                                        2 columns │
…
## Spatial Relationships


```python
con.sql("SELECT * from nyc_subway_stations;")
```




    ┌──────────┬────────┬───────────────────┬───┬──────────────┬─────────┬─────────┬──────────────────────┐
    │ OBJECTID │   ID   │       NAME        │ … │    COLOR     │ EXPRESS │ CLOSED  │         geom         │
    │  double  │ double │      varchar      │   │   varchar    │ varchar │ varchar │       geometry       │
    ├──────────┼────────┼───────────────────┼───┼──────────────┼─────────┼─────────┼──────────────────────┤
    │      1.0 │  376.0 │ Cortlandt St      │ … │ YELLOW       │ NULL    │ NULL    │ POINT (583521.8544…  │
    │      2.0 │    2.0 │ Rector St         │ … │ RED          │ NULL    │ NULL    │ POINT (583324.4866…  │
    │      3.0 │    1.0 │ South Ferry       │ … │ RED          │ NULL    │ NULL    │ POINT (583304.1823…  │
    │      4.0 │  125.0 │ 138th St          │ … │ GREEN        │ NULL    │ NULL    │ POINT (590250.1059…  │
    │      5.0 │  126.0 │ 149th St          │ … │ GREEN        │ express │ NULL    │ POINT (590454.7399…  │
    │      6.0 │   45.0 │ 149th St          │ … │ RED-GREEN    │ express │ NULL    │ POINT (590465.8934…  │
    │      7.0 │  127.0 │ 161st St          │ … │ GREEN-ORANGE │ NULL    │ NULL    │ POINT (590573.1694…  │
    │      8.0 │  208.0 │ 167th St          │ … │ ORANGE       │ NULL    │ NULL    │ POINT (591252.8314…  │
    │      9.0 │  128.0 │ 167th St          │ … │ GREEN        │ NULL    │ NULL    │ POINT (590946.3972…  │
    │     10.0 │  209.0 │ 170th St          │ … │ ORANGE       │ NULL    │ NULL    │ POINT (591583.6111…  │
    │       ·  │     ·  │    ·              │ · │  ·           │  ·      │  ·      │          ·           │
    │       ·  │     ·  │    ·              │ · │  ·           │  ·      │  ·      │          ·           │
    │       ·  │     ·  │    ·              │ · │  ·           │  ·      │  ·      │          ·           │
    │    481.0 │   99.0 │ Times Sq          │ … │ RED          │ express │ NULL    │ POINT (585513.1770…  │
    │    482.0 │  904.0 │ JFK Terminal 1    │ … │ AIR-BLUE     │ NULL    │ NULL    │ POINT (602356.9561…  │
    │    483.0 │  905.0 │ JFK Terminal 2-3  │ … │ AIR-BLUE     │ NULL    │ NULL    │ POINT (602526.1125…  │
    │    484.0 │  906.0 │ JFK Terminal 4    │ … │ AIR-BLUE     │ NULL    │ NULL    │ POINT (602985.6731…  │
    │    485.0 │  907.0 │ JFK Terminal 5-6  │ … │ AIR-BLUE     │ NULL    │ NULL    │ POINT (603245.7503…  │
    │    486.0 │  908.0 │ JFK Terminal 7    │ … │ AIR-BLUE     │ NULL    │ NULL    │ POINT (602880.3266…  │
    │    487.0 │  909.0 │ JFK Terminal 8    │ … │ AIR-BLUE     │ NULL    │ NULL    │ POINT (602433.3533…  │
    │    488.0 │  903.0 │ Federal Circle    │ … │ AIR-BLUE     │ NULL    │ NULL    │ POINT (600903.1428…  │
    │    489.0 │  902.0 │ Long Term Parking │ … │ AIR-BLUE     │ NULL    │ NULL    │ POINT (599552.1129…  │
    │    490.0 │  901.0 │ Howard Beach      │ … │ AIR-BLUE     │ NULL    │ NULL    │ POINT (598862.0205…  │
    ├──────────┴────────┴───────────────────┴───┴──────────────┴─────────┴─────────┴──────────────────────┤
    │ 490 rows (20 shown)                                                            15 columns (7 shown) │
…
```python
con.sql("SELECT * from nyc_neighborhoods;")
```




    ┌───────────────┬──────────────────────┬───────────────────────────────────────────────────────────────────────────────┐
    │   BORONAME    │         NAME         │                                     geom                                      │
    │    varchar    │       varchar        │                                   geometry                                    │
    ├───────────────┼──────────────────────┼───────────────────────────────────────────────────────────────────────────────┤
    │ Brooklyn      │ Bensonhurst          │ POLYGON ((582771.4257198056 4495167.427365481, 584651.2943549604 4497541.64…  │
    │ Manhattan     │ East Village         │ POLYGON ((585508.7534890148 4509691.267208001, 586826.3570590394 4508984.18…  │
    │ Manhattan     │ West Village         │ POLYGON ((583263.2776595836 4509242.626023987, 583276.8199068634 4509378.82…  │
    │ The Bronx     │ Throggs Neck         │ POLYGON ((597640.0090688139 4520272.719938631, 597647.7457808304 4520617.82…  │
    │ The Bronx     │ Wakefield-Williams…  │ POLYGON ((595285.2053417757 4525938.79838847, 595348.5452399419 4526158.776…  │
    │ Queens        │ Auburndale           │ POLYGON ((600973.0089608189 4510338.8574458575, 601002.162100491 4510743.04…  │
    │ Manhattan     │ Battery Park         │ POLYGON ((583408.1010054761 4508093.1107926965, 583356.0476085746 4507665.1…  │
    │ Manhattan     │ Carnegie Hill        │ POLYGON ((588501.208387079 4515525.879866604, 588125.0295366715 4514806.769…  │
    │ Staten Island │ Mariners Harbor      │ POLYGON ((570300.1080794979 4497031.156416456, 570393.8363765916 4497227.42…  │
    │ Staten Island │ Rossville            │ POLYGON ((564664.9567825551 4489358.426550738, 564771.4570512844 4489415.86…  │
    │     ·         │     ·                │                                       ·                                       │
    │     ·         │     ·                │                                       ·                                       │
    │     ·         │     ·                │                                       ·                                       │
    │ Manhattan     │ Yorkville            │ POLYGON ((589221.3042189671 4515275.918404947, 589137.4128152014 4515181.03…  │
    │ Manhattan     │ Chinatown            │ POLYGON ((584212.0263544542 4507715.994306428, 584418.5960554194 4508039.30…  │
    │ Queens        │ Bayside              │ MULTIPOLYGON (((602775.3139520675 4516699.252888854, 602773.8062540573 4516…  │
    │ Brooklyn      │ Coney Island         │ MULTIPOLYGON (((586797.2142308942 4491782.743200868, 586797.6993674854 4491…  │
    │ Queens        │ Corona               │ POLYGON ((595483.2191909261 4513816.729664179, 595482.9622063976 4513818.69…  │
    │ Brooklyn      │ Red Hook             │ MULTIPOLYGON (((584212.898102789 4502321.474446659, 584306.8204918649 45023…  │
    │ Queens        │ Douglastown-Little…  │ POLYGON ((605082.2876993549 4513540.148431633, 605091.565767156 4513533.146…  │
    │ Queens        │ Whitestone           │ MULTIPOLYGON (((600138.4932375996 4516909.499424748, 600138.4432112409 4516…  │
    │ Queens        │ Steinway             │ MULTIPOLYGON (((593231.5525230656 4515088.539060092, 593306.6081032692 4515…  │
    │ Staten Island │ Rosebank             │ POLYGON ((579051.0303273386 4495284.647006003, 579062.1215490546 4495347.57…  │
    ├───────────────┴──────────────────────┴───────────────────────────────────────────────────────────────────────────────┤
    │ 129 rows (20 shown)                                                                                        3 columns │
…
